[
    {
        "id": "1714211",
        "severity": "sev-1",
        "title": "Make the logo bigger",
        "summary": "Lorem ipsum dolor sit amet, consectetur adipiscing elit. Phasellus feugiat ultrices auctor. In eros justo, accumsan sed orci nec, euismod fermentum nibh. Pellentesque at tortor rhoncus, semper mi id, scelerisque sapien. Ut fermentum tellus vel tellus tristique, quis rutrum metus mattis. Nulla nisl eros, ultrices vitae pulvinar et, condimentum commodo massa. Suspendisse potenti. Aenean nec dictum purus. Etiam auctor congue ex ut aliquet. Suspendisse lacinia arcu turpis, eu fringilla justo euismod non. Donec varius enim at elit aliquet aliquet. Aenean velit ante, luctus ut tortor et, fringilla tempus ex. Etiam malesuada dui in commodo euismod. Maecenas vel lectus fringilla libero molestie tincidunt at ut libero.",
        "product": {
            "name": "Oracle Website",
            "version_edition": "Enterprise Edition",
            "component": "Maintenance Wizard",
            "subcomponent": "Framework"
        },
        "clasification": "Active Participant",
        "state": "Closed",
        "status": {
            "title": "Closed",
            "code": "90",
            "name": "Verified by Filer"
        },
        "last_update": "2 minutes ago"
},
    {
        "id": "1714212",
        "severity": "sev-2",
        "title": "Lorem ipsum dolor sit amet",
        "summary": "Lorem ipsum dolor sit amet, consectetur adipiscing elit. Phasellus feugiat ultrices auctor. In eros justo, accumsan sed orci nec, euismod fermentum nibh. Pellentesque at tortor rhoncus, semper mi id, scelerisque sapien. Ut fermentum tellus vel tellus tristique, quis rutrum metus mattis. Nulla nisl eros, ultrices vitae pulvinar et, condimentum commodo massa. Suspendisse potenti. Aenean nec dictum purus. Etiam auctor congue ex ut aliquet. Suspendisse lacinia arcu turpis, eu fringilla justo euismod non. Donec varius enim at elit aliquet aliquet. Aenean velit ante, luctus ut tortor et, fringilla tempus ex. Etiam malesuada dui in commodo euismod. Maecenas vel lectus fringilla libero molestie tincidunt at ut libero.",
        "product": {
            "name": "Oracle Website",
            "version_edition": "Enterprise Edition",
            "component": "Maintenance Wizard",
            "subcomponent": "Framework"
        },
        "clasification": "Active Participant",
        "state": "Closed",
        "status": {
            "title": "Closed",
            "code": "90",
            "name": "Verified by Filer"
        },
        "last_update": "7 minutes ago"
},
    {
        "id": "1714213",
        "severity": "sev-3",
        "title": "Etiam dictum erat a leo convallis",
        "summary": "Lorem ipsum dolor sit amet, consectetur adipiscing elit. Phasellus feugiat ultrices auctor. In eros justo, accumsan sed orci nec, euismod fermentum nibh. Pellentesque at tortor rhoncus, semper mi id, scelerisque sapien. Ut fermentum tellus vel tellus tristique, quis rutrum metus mattis. Nulla nisl eros, ultrices vitae pulvinar et, condimentum commodo massa. Suspendisse potenti. Aenean nec dictum purus. Etiam auctor congue ex ut aliquet. Suspendisse lacinia arcu turpis, eu fringilla justo euismod non. Donec varius enim at elit aliquet aliquet. Aenean velit ante, luctus ut tortor et, fringilla tempus ex. Etiam malesuada dui in commodo euismod. Maecenas vel lectus fringilla libero molestie tincidunt at ut libero.",
        "product": {
            "name": "Oracle Website",
            "version_edition": "Enterprise Edition",
            "component": "Maintenance Wizard",
            "subcomponent": "Framework"
        },
        "clasification": "Active Participant",
        "state": "Closed",
        "status": {
            "title": "Closed",
            "code": "90",
            "name": "Verified by Filer"
        },
        "last_update": "5 minutes ago"
},
    {
        "id": "17142312",
        "severity": "sev-3",
        "title": "Pellentesque dolor orci",
        "summary": "Lorem ipsum dolor sit amet, consectetur adipiscing elit. Phasellus feugiat ultrices auctor. In eros justo, accumsan sed orci nec, euismod fermentum nibh. Pellentesque at tortor rhoncus, semper mi id, scelerisque sapien. Ut fermentum tellus vel tellus tristique, quis rutrum metus mattis. Nulla nisl eros, ultrices vitae pulvinar et, condimentum commodo massa. Suspendisse potenti. Aenean nec dictum purus. Etiam auctor congue ex ut aliquet. Suspendisse lacinia arcu turpis, eu fringilla justo euismod non. Donec varius enim at elit aliquet aliquet. Aenean velit ante, luctus ut tortor et, fringilla tempus ex. Etiam malesuada dui in commodo euismod. Maecenas vel lectus fringilla libero molestie tincidunt at ut libero.",
        "product": {
            "name": "Oracle Website",
            "version_edition": "Enterprise Edition",
            "component": "Maintenance Wizard",
            "subcomponent": "Framework"
        },
        "clasification": "Active Participant",
        "state": "Open",
        "status": {
            "title": "Open",
            "code": "30",
            "name": "Awaiting Review"
        },
        "last_update": "5 minutes ago"
}
,
    {
        "id": "17142314",
        "severity": "sev-2",
        "title": "Donec eu commodo purus",
        "summary": "Lorem ipsum dolor sit amet, consectetur adipiscing elit. Phasellus feugiat ultrices auctor. In eros justo, accumsan sed orci nec, euismod fermentum nibh. Pellentesque at tortor rhoncus, semper mi id, scelerisque sapien. Ut fermentum tellus vel tellus tristique, quis rutrum metus mattis. Nulla nisl eros, ultrices vitae pulvinar et, condimentum commodo massa. Suspendisse potenti. Aenean nec dictum purus. Etiam auctor congue ex ut aliquet. Suspendisse lacinia arcu turpis, eu fringilla justo euismod non. Donec varius enim at elit aliquet aliquet. Aenean velit ante, luctus ut tortor et, fringilla tempus ex. Etiam malesuada dui in commodo euismod. Maecenas vel lectus fringilla libero molestie tincidunt at ut libero.",
        "product": {
            "name": "Oracle Website",
            "version_edition": "Enterprise Edition",
            "component": "Maintenance Wizard",
            "subcomponent": "Framework"
        },
        "clasification": "Active Participant",
        "state": "Open",
        "status": {
            "title": "Open",
            "code": "30",
            "name": "Awaiting Review"
        },
        "last_update": "5 minutes ago"
}
,
    { 
        "id": "17142316",
        "severity": "sev-1",
        "title": "Donec mollis ex aco",
        "summary": "Lorem ipsum dolor sit amet, consectetur adipiscing elit. Phasellus feugiat ultrices auctor. In eros justo, accumsan sed orci nec, euismod fermentum nibh. Pellentesque at tortor rhoncus, semper mi id, scelerisque sapien. Ut fermentum tellus vel tellus tristique, quis rutrum metus mattis. Nulla nisl eros, ultrices vitae pulvinar et, condimentum commodo massa. Suspendisse potenti. Aenean nec dictum purus. Etiam auctor congue ex ut aliquet. Suspendisse lacinia arcu turpis, eu fringilla justo euismod non. Donec varius enim at elit aliquet aliquet. Aenean velit ante, luctus ut tortor et, fringilla tempus ex. Etiam malesuada dui in commodo euismod. Maecenas vel lectus fringilla libero molestie tincidunt at ut libero.",
        "product": {
            "name": "Oracle Website",
            "version_edition": "Enterprise Edition",
            "component": "Maintenance Wizard",
            "subcomponent": "Framework"
        },
        "clasification": "Active Participant",
        "state": "Open",
        "status": {
            "title": "Open",
            "code": "30",
            "name": "Awaiting Review"
        },
        "last_update": "5 minutes ago"
}
]